<?xml version="1.0" standalone="no"?>
<!DOCTYPE svg PUBLIC "-//W3C//DTD SVG 1.1//EN" "http://www.w3.org/Graphics/SVG/1.1/DTD/svg11.dtd" >
<!--
2018-4-10: Created with FontForge (http://fontforge.org)
-->
<svg xmlns="http://www.w3.org/2000/svg" xmlns:xlink="http://www.w3.org/1999/xlink" version="1.1">
<metadata>
Created by FontForge 20160405 at Tue Apr 10 15:01:01 2018
 By Apache
Copyright (c) 2018, Apache
</metadata>
<defs>
<font id="Flaticon" horiz-adv-x="512" >
  <font-face 
    font-family="Flaticon"
    font-weight="400"
    font-stretch="normal"
    units-per-em="512"
    panose-1="2 0 5 3 0 0 0 0 0 0"
    ascent="448"
    descent="-64"
    bbox="0 -64 512.004 448.002"
    underline-thickness="25.6"
    underline-position="-51.2"
    unicode-range="U+0020-F105"
  />
    <missing-glyph />
    <glyph glyph-name="space" unicode=" " horiz-adv-x="200" 
 />
    <glyph glyph-name="uniF103" unicode="&#xf103;" 
d="M507.871 5.42383c5.38867 -5.38867 5.38867 -13.4707 0.673828 -18.8594l-46.4756 -46.4756c-5.38867 -5.38867 -13.4717 -5.38867 -18.8604 0l-127.303 126.629c-32.3311 -20.207 -69.377 -30.9834 -108.443 -30.9834c-115.852 0 -206.782 93.625 -207.456 206.109
s88.9102 206.109 207.456 206.109c113.832 0 204.763 -90.2578 204.763 -204.089c0 -38.3926 -10.1035 -77.46 -31.6572 -111.138zM207.463 62.6768c95.6455 0 178.494 76.7852 177.82 181.861c-0.673828 98.3398 -76.7861 177.146 -177.82 177.146
c-103.728 0 -181.188 -82.1738 -180.514 -179.167c0.673828 -98.3398 79.4805 -179.84 180.514 -179.84zM451.966 -31.6221l27.6162 27.6162l-114.506 114.505c-4.71484 -5.38867 -23.5742 -24.248 -27.6162 -27.6162z" />
    <glyph glyph-name="uniF101" unicode="&#xf101;" 
d="M499.048 137.103c1.875 -2.49902 4.99805 -4.37402 8.12207 -6.87305c4.37402 -3.12402 5.62402 -8.74707 4.37402 -13.7451c-4.99805 -18.1191 -12.4961 -35.6133 -21.2432 -51.8584c-2.49902 -4.37305 -7.49707 -6.87207 -12.4961 -6.24805
c-3.74805 0.625 -7.49707 0.625 -10.6211 0.625c-43.1113 0 -78.0996 -34.3633 -78.0996 -77.4746c0 -3.12402 0 -6.24707 0.625 -10.6211c0.625 -4.99805 -1.87402 -9.99707 -6.24805 -12.4961c-16.2441 -8.74707 -33.7383 -15.6191 -51.8574 -21.2432
c-1.25 -0.624023 -2.49902 -0.624023 -3.74902 -0.624023c-3.74902 0 -7.49805 1.87402 -9.99707 4.99805s-4.37305 5.62305 -6.87207 8.12207c-14.3711 14.3701 -34.3643 22.4932 -54.9824 22.4932s-39.9863 -8.12305 -54.9814 -22.4932
c-1.875 -1.87402 -4.37402 -4.99805 -6.87305 -8.12207c-3.12402 -4.37402 -8.74707 -5.62305 -13.7451 -4.37402c-18.1191 4.99902 -35.6133 12.4961 -51.8584 21.2432c-4.37305 2.49902 -6.87207 7.49805 -6.24805 12.4961c0.625 3.74902 0.625 7.49707 0.625 10.6211
c0 42.4863 -34.9883 77.4746 -78.0996 77.4746c-3.12305 0 -6.24707 0 -10.6211 -0.625c-4.99805 -0.624023 -9.99707 1.875 -12.4961 6.24805c-8.74707 16.2451 -15.6191 33.7393 -21.2432 51.8584c-1.24902 4.99805 0 10.6211 4.37402 13.7451
c3.12402 2.49902 5.62305 4.37402 8.12207 6.87305c30.6152 30.6152 30.6152 79.9736 0 109.964c-1.87402 1.87402 -4.37305 4.37305 -8.12207 6.87207c-4.37402 3.12402 -5.62305 8.74805 -4.37402 13.7461c4.99902 18.1191 12.4961 35.6133 21.2432 51.8574
c2.49902 4.37402 7.49805 6.87305 12.4961 6.24805c3.74902 -0.625 7.49805 -0.625 10.6211 -0.625c43.1113 0 78.0996 34.3643 78.0996 77.4746c0 3.12402 0 6.24805 -0.625 10.6221c-0.624023 4.99805 1.875 9.99609 6.24805 12.4961
c16.2451 8.74707 33.7393 15.6191 51.8584 21.2422c4.99805 1.25 10.6211 0 13.7451 -4.37305c2.49902 -3.12402 4.37402 -5.62305 6.87305 -8.12207c14.3701 -14.3711 34.3633 -22.4932 54.9814 -22.4932s39.9873 8.12207 54.9824 22.4932
c1.87402 1.87402 4.37305 4.99805 6.87207 8.12207c3.12402 3.74902 8.74707 5.62305 13.7461 4.37305c18.1191 -4.99805 35.6133 -12.4951 51.8574 -21.2422c4.37402 -2.5 6.87305 -7.49805 6.24805 -12.4961c-0.625 -3.74902 -0.625 -7.49805 -0.625 -10.6221
c0 -42.4854 34.9883 -77.4746 78.0996 -77.4746c3.12402 0 6.24805 0 10.6211 0.625c4.99902 0.625 9.99707 -1.87402 12.4961 -6.24805c8.74707 -16.2441 16.2451 -33.7383 21.2432 -51.8574c1.25 -4.99805 0 -10.6221 -4.37402 -13.7461
c-3.12402 -2.49902 -5.62305 -4.37305 -8.12207 -6.87207c-14.9951 -14.9951 -23.1172 -34.3643 -23.1172 -54.9824s8.12207 -40.6113 23.1172 -54.9814zM472.182 83.9951c4.99902 9.99609 9.37207 20.6182 13.1211 32.4893
c-1.25 1.24902 -2.49902 2.49902 -3.74902 3.74902c-19.3682 19.3682 -29.9902 44.9844 -29.9902 72.4756s10.6221 53.1074 29.9902 72.4766c1.25 1.24902 2.49902 2.49902 3.74902 3.74805c-3.74902 11.2471 -8.12207 21.8682 -13.1211 31.8652h-5.62305
c-56.8564 0 -103.091 45.6094 -103.091 102.466v5.62305c-10.6211 4.99902 -21.2432 9.37207 -31.8643 13.1211l-3.74902 -3.74902c-19.3691 -19.3682 -44.9854 -29.9902 -72.4766 -29.9902c-27.4902 0 -53.1074 10.6221 -72.4756 29.9902l-3.74902 3.74902
c-11.2461 -3.74902 -21.8672 -8.12207 -31.8643 -13.1211v-5.62305c0 -56.2314 -46.2354 -102.466 -103.091 -102.466h-5.62305c-4.99902 -10.6221 -9.37207 -21.2432 -13.1211 -31.8652c1.25 -1.24902 2.49902 -2.49902 3.74902 -3.74805
c39.9863 -40.6123 39.9863 -105.591 0 -145.577l-3.74902 -3.74902c3.74902 -11.2461 8.12207 -21.8682 13.1211 -31.8643h5.62305c56.8555 0 103.091 -45.6104 103.091 -102.467v-5.62305c10.6211 -4.99805 21.2432 -9.37207 31.8643 -13.1201
c1.25 1.24902 2.49902 2.49902 3.74902 3.74805c19.3682 19.3691 44.9854 29.9902 72.4756 29.9902c27.4912 0 53.1074 -10.6211 72.4766 -29.9902c1.25 -1.24902 2.49902 -2.49902 3.74902 -3.74805c11.2461 3.74805 21.8672 8.12207 31.8643 13.1201v5.62305
c0 56.2314 46.2344 102.467 103.091 102.467h5.62305zM255.997 340.785c81.8477 0 148.701 -66.8525 148.701 -148.701c0 -81.8477 -66.8535 -148.7 -148.701 -148.7c-81.8486 0 -148.701 66.8525 -148.701 148.7c0 81.8486 66.8525 148.701 148.701 148.701z
M255.997 68.375c68.1084 0 123.709 55.6064 123.709 123.709s-55.6064 123.71 -123.709 123.71s-123.709 -55.6074 -123.709 -123.71s55.6064 -123.709 123.709 -123.709z" />
    <glyph glyph-name="uniF100" unicode="&#xf100;" 
d="M400.526 407.624c89.1553 -40.1924 133.733 -141.771 99.3867 -233.85l-47.501 -130.079l40.1934 -85.502c2.19238 -3.65332 2.92285 -8.03809 1.46094 -12.4229c-2.92285 -8.03809 -11.6924 -11.6924 -19 -8.76953v0l-159.311 57.001
c-19 -32.1543 -59.9238 -47.501 -96.4629 -34.3467s-57.7314 50.4238 -51.1553 87.6943l-157.849 57.7314c-12.4229 4.38477 -13.1533 21.1924 -1.46094 26.3076l87.6934 40.1934l47.501 130.079c34.3467 92.0781 134.464 141.771 228.734 116.194l8.03906 20.4619
c2.19238 7.30762 10.9609 11.6924 18.2695 8.76953c8.03809 -2.19238 11.6924 -10.9619 8.76855 -18.2695zM230.255 -13.3057c21.1924 -7.30762 45.3086 0 58.4619 17.5391l-92.0781 32.8848c-1.46191 -21.9238 11.6924 -42.3857 33.6162 -50.4238zM472.874 183.274
c29.9619 81.8477 -13.1543 173.195 -96.4629 203.157c-83.3096 29.2314 -175.388 -13.1543 -205.35 -95.002l-49.6934 -135.194c-1.46191 -3.65332 -3.6543 -6.57715 -7.30762 -8.03809l-61.3857 -28.501l138.117 -49.6934l123.502 -44.5771l138.118 -48.9629l-28.5 60.6553
c-2.19238 3.6543 -2.19238 7.30762 -0.731445 10.9619z" />
    <glyph glyph-name="uniF102" unicode="&#xf102;" 
d="M502.09 258.352c9.30566 -1.16309 13.377 -12.7949 6.39746 -19.7744l-120.392 -113.993l30.2432 -163.43c1.74512 -9.30566 -8.14258 -16.8662 -16.8662 -12.2139l-145.4 79.0977l-145.399 -79.0977c-8.72461 -4.65234 -18.6113 2.9082 -16.8662 12.2139l30.2432 163.43
l-120.392 113.993c-6.97949 6.97949 -3.48926 18.6113 6.39746 19.7744l164.593 21.5195l70.9551 150.053c4.07129 8.72363 16.8672 8.72363 20.9375 0l70.9561 -150.053zM367.158 136.798l107.596 101.779l-146.562 19.7744
c-3.49023 0.582031 -6.97949 2.9082 -8.72461 6.39746l-63.3945 133.187l-62.8125 -133.768c-1.74512 -3.48926 -5.23438 -5.81641 -9.30566 -6.39746l-146.563 -19.1934l107.597 -101.779c2.9082 -2.9082 4.07129 -6.39844 3.48926 -10.4688l-27.335 -145.4
l129.115 70.9551c1.74512 0.582031 4.07129 1.16309 5.81543 1.16309c2.32715 0 4.07129 0 5.81641 -1.16309l129.115 -70.9551l-27.335 145.4c-0.582031 4.07031 0.581055 7.56055 3.48926 10.4688z" />
    <glyph glyph-name="uniF104" unicode="&#xf104;" 
d="M317.046 177.559c101.088 -26.9121 175.262 -119.466 175.262 -228.431c0 -7.2207 -5.90723 -13.1279 -13.1279 -13.1279h-446.359c-7.2207 0 -13.1279 5.90723 -13.1279 13.1279c0 108.965 74.1738 201.519 175.262 228.431
c-42.667 26.2568 -70.2363 78.1133 -70.2363 126.031c0 68.2666 55.7949 144.41 131.282 144.41s131.282 -76.1436 131.282 -144.41c0 -47.918 -27.5693 -99.7744 -70.2363 -126.031zM150.975 303.59c0 -67.6104 55.7949 -118.154 105.025 -118.154
s105.025 50.5439 105.025 118.154s-55.7949 118.153 -105.025 118.153s-105.025 -50.543 -105.025 -118.153zM46.6055 -37.7432h418.789c-6.56348 109.62 -98.4609 196.923 -209.395 196.923s-202.831 -87.3027 -209.395 -196.923z" />
    <glyph glyph-name="uniF105" unicode="&#xf105;" 
d="M499.2 364.8c7.04004 0 12.7998 -5.75977 12.7998 -12.7998v-320c0 -7.04004 -5.75977 -12.7998 -12.7998 -12.7998h-486.4c-7.04004 0 -12.7998 5.75977 -12.7998 12.7998v320c0 7.04004 5.75977 12.7998 12.7998 12.7998h486.4zM468.48 339.2h-424.961l212.48 -212.48z
M25.5996 321.28v-258.561l129.28 129.28zM44.1602 44.7998h423.68l-128.64 128.641l-74.2402 -74.2402c-5.12012 -5.12012 -12.7998 -5.12012 -17.9199 0l-74.2402 74.2402zM486.4 62.7197v258.561l-129.28 -129.28z" />
  </font>
</defs></svg>
